"steam/cached/InstallSubChooseApps_SingleApp.res"
{
	"InstallSubChooseApps"
	{
		"ControlName"		"CInstallSubChooseApps"
		"fieldName"		"InstallSubChooseApps"
		"xpos"		"8"
		"ypos"		"48"
		"wide"		"388"
		"tall"		"300"
		"AutoResize"		"0"
		"PinCorner"		"0"
		"visible"		"1"
		"enabled"		"1"
		"tabPosition"		"1"
		"paintbackground"		"1"
		"WizardWide"		"0"
		"WizardTall"		"0"
	}
	"GameCheckButtonList"
	{
		"ControlName"		"CheckButtonList"
		"fieldName"		"GameCheckButtonList"
		"xpos"		"40"
		"ypos"		"114"
		"wide"		"280"
		"tall"		"30"
		"AutoResize"		"0"
		"PinCorner"		"0"
		"visible"		"0"
		"enabled"		"1"
		"tabPosition"		"0"
		"paintbackground"		"1"
	}
	"InstallSize"
	{
		"ControlName"		"Label"
		"fieldName"		"InstallSize"
		"xpos"		"24"
		"ypos"		"80"
		"wide"		"187"
		"tall"		"24"
		"AutoResize"		"0"
		"PinCorner"		"0"
		"visible"		"1"
		"enabled"		"1"
		"tabPosition"		"0"
		"paintbackground"		"1"
		"labelText"		"#Steam_ScanCDKey_SpaceRequired"
		"textAlignment"		"west"
		"wrap"		"0"
	}
	"DriveSpace"
	{
		"ControlName"		"Label"
		"fieldName"		"DriveSpace"
		"xpos"		"24"
		"ypos"		"106"
		"wide"		"184"
		"tall"		"24"
		"AutoResize"		"0"
		"PinCorner"		"0"
		"visible"		"1"
		"enabled"		"1"
		"tabPosition"		"0"
		"paintbackground"		"1"
		"labelText"		"#Steam_ScanCDKey_SpaceAvailable"
		"textAlignment"		"west"
		"wrap"		"0"
	}
	"DriveSpaceLabel"
	{
		"ControlName"		"Label"
		"fieldName"		"DriveSpaceLabel"
		"xpos"		"220"
		"ypos"		"106"
		"wide"		"200"
		"tall"		"24"
		"AutoResize"		"0"
		"PinCorner"		"0"
		"visible"		"1"
		"enabled"		"1"
		"tabPosition"		"0"
		"paintbackground"		"1"
		"labelText"		"148805 MB"
		"textAlignment"		"west"
		"wrap"		"0"
	}
	"InstallSizeLabel"
	{
		"ControlName"		"Label"
		"fieldName"		"InstallSizeLabel"
		"xpos"		"220"
		"ypos"		"80"
		"wide"		"200"
		"tall"		"24"
		"AutoResize"		"0"
		"PinCorner"		"0"
		"visible"		"1"
		"enabled"		"1"
		"tabPosition"		"0"
		"paintbackground"		"1"
		"labelText"		"380 MB"
		"textAlignment"		"west"
		"wrap"		"0"
	}
	"Label1"
	{
		"ControlName"		"Label"
		"fieldName"		"Label1"
		"xpos"		"24"
		"ypos"		"22"
		"wide"		"410"
		"tall"		"40"
		"AutoResize"		"0"
		"PinCorner"		"0"
		"visible"		"1"
		"enabled"		"1"
		"tabPosition"		"0"
		"paintbackground"		"1"
		"labelText"		"#Steam_InstallGameInfo"
		"textAlignment"		"north-west"
		"wrap"		"1"
	}
	"DownloadTimeInfo"
	{
		"ControlName"		"Label"
		"fieldName"		"DownloadTimeInfo"
		"xpos"		"220"
		"ypos"		"138"
		"wide"		"200"
		"tall"		"48"
		"AutoResize"		"0"
		"PinCorner"		"0"
		"visible"		"1"
		"enabled"		"1"
		"tabPosition"		"0"
		"paintbackground"		"1"
		"labelText"		"#Steam_InstallDownloadTime_Info"
		"textAlignment"		"north-west"
		"wrap"		"1"
	}
	"DownloadTimeLabel"
	{
		"ControlName"		"Label"
		"fieldName"		"DownloadTimeLabel"
		"xpos"		"24"
		"ypos"		"133"
		"wide"		"189"
		"tall"		"24"
		"AutoResize"		"0"
		"PinCorner"		"0"
		"visible"		"1"
		"enabled"		"1"
		"tabPosition"		"0"
		"paintbackground"		"1"
		"labelText"		"#Steam_InstallDownloadTime"
		"textAlignment"		"west"
		"wrap"		"0"
	}
	layout
	{
		place { control="frame_minimize,frame_maximize,frame_close" align=right width=40 height=40 margin-right=1 }
	}
}
